﻿StadiumName,Capacity,YearOpened,Owner,Surface,LocationID
Arrowhead Stadium,76416,August 12 1972,Jackson County Sports Complex Authority,AstroTurf,1
Faurot Field,71168,October 2 1926,Jackson County Sports Complex Authority,AstroTurf,2
Edward Jones Dome,66000,November 12 1995,St. Louis Regional Sports Authority,AstroTurf GameDay Grass 3D,3
Ohio Stadium,104944,October 7 1922,Ohio State University,FieldTurf,4
Los Angeles Memorial Coliseum,93607,May 1 1923,State of California and County of Los Angeles,Natural grass,5
FedExField,82000,September 14 1997,Daniel Snyder,Latitude 36 Bermuda Grass,6
Raymond James Stadium,65890,September 20 1998,Hillsborough County,Tifway 419 Bermuda,7
